26.548063084385618,53.898087404355124
26.54796710849646,53.89811154423626
26.547878330727467,53.89822956143291
26.547875931327347,53.89834757862957
26.547681579751245,53.89852192221554
26.547472831395222,53.89863725720318
26.54677940022066,53.89855679093273
26.54585081972823,53.89860238848598
26.545903607451326,53.898318074330405
26.545877213592806,53.89822151480587
26.545594079092215,53.89863993941219
26.544977419328692,53.89873381672771
26.544125607587468,53.89863457499416
26.543888058959705,53.89868285475643
26.543357771864155,53.899436555489615
26.543125020645306,53.89921393214138
26.542940259032235,53.899787924870566
26.542088432161876,53.89984693346889
26.54104223613881,53.90038069306286
26.540919859375162,53.90018489180477
26.540051220555615,53.90064354954632
26.53985445615239,53.90113975821407
26.539609699960298,53.90146162329586
26.538205941125778,53.9018290859309
26.537747616145758,53.90216436205776
26.537577243565952,53.9024057608691
26.53753405047736,53.902687392815665
26.53702053140031,53.90322115240963
26.53630783990081,53.90371467886837
26.536192657020678,53.90396948872478
26.53619505666519,53.904398642167166
26.535628739167898,53.90488948641689
26.533169065062154,53.906284235104636
26.53279231032316,53.90663024006756
26.532187580385305,53.906673155411795
26.531422064504756,53.90696015177639
26.530826926373585,53.907402716263846
26.53078853025914,53.907813094243124
26.52951665170766,53.908075950726584
26.52827115697619,53.90848364649685
26.52819916264785,53.90860434590252
26.528139167339745,53.908778689488486
26.52713844097651,53.90901740609081
26.525772927379496,53.90967454729946
26.525007368713393,53.90987303076656
26.524359399708718,53.910511396512106
26.52398021615034,53.91070719777019
26.522269074767074,53.91127046166332
26.522014681303773,53.911667428597525
26.521990681891342,53.91183640776546
26.521861084977537,53.911908827408865
26.521760287276777,53.911645970925406
26.52164268984736,53.91159232674511
26.521450693785372,53.91185786543758
26.521117099864092,53.91248818455608
26.521066700698178,53.912675939187125
26.52112429974313,53.91286101160915
26.52067070648191,53.91330357609661
26.52015471196895,53.913695178612784
26.519732314734547,53.91472246466549
26.519895513850233,53.91487266837032
26.519888313894125,53.91505774079235
26.51955471543333,53.91529913960369
26.519213916004883,53.91545202551754
26.518971515795826,53.91537155924709
26.51877287568475,53.915366090438624
26.51850647440388,53.91606078257348
26.518316873115783,53.91629949917581
26.51804807075309,53.91701028456475
26.517968869936904,53.91692981829431
26.517906469255394,53.9169110428312
26.517832068398498,53.916951275966426
26.517817668227085,53.917004920146724
26.517486463786003,53.91726241221215
26.517551264730077,53.917624510429164
26.517476863643033,53.918185092113276
26.51696325482388,53.91885027994897
26.516893653452044,53.919209695956965
26.516927254119565,53.91975418438699
26.516776051038185,53.9201699267843
26.51675685063266,53.9203684102514
26.51689605350003,53.920497156284114
26.51701125574542,53.92079417324737
26.516946454496622,53.920955105788266
26.517056856602295,53.92109994507507
26.517006455654176,53.92129038191513
26.51572482411158,53.92266635513977
26.515523217847857,53.92297480917648
26.515417614425612,53.92328862763122
26.515396013713655,53.923739238745725
26.514728789720685,53.92439637995437
26.514546382486728,53.924973054892575
26.51338472962029,53.92693911410049
26.513238322123637,53.92693374968246
26.513199920126386,53.92705444908813
26.51320472037676,53.92718855953888
26.51326952373693,53.92729316569046
26.51323352187469,53.92742995835022
26.51307511354669,53.92765258169845
26.5130631129069,53.9278591117926
26.513127916346964,53.92801736212448
26.513300725341754,53.92822121000961
26.5134999353881,53.92830167628006
26.51349827994328,53.92830474424727
26.513426276350902,53.92857296514876
26.513282269030736,53.92876876640685
26.511779781887455,53.93006427336104
26.51081555541039,53.9305963727021
26.510690746239764,53.93087264023063
26.509486650418456,53.9318498585958
26.50838110030471,53.93333549069314
26.507646327805812,53.93459261018802
26.507454428833032,53.93513964618319
26.50744962834236,53.93555270637148
26.507036785394483,53.93627153838747
26.507003181833444,53.93692867959612
26.507058387678548,53.93700378144854
26.507365619723213,53.937086929928
26.507574441034546,53.93730687106722
26.5076752511869,53.93755363429659
26.507459229323498,53.93802838529223
26.507137596018676,53.93850581849688
26.50675115481226,53.938953747402365
26.507507397461854,53.94107351342143
26.50810372686212,53.94188444673898
26.50817093333056,53.942270684837126
26.507058862031894,53.94390055599911
26.506763630466093,53.944195598990746
26.506696423174347,53.94446650210125
26.506922047498172,53.94514792657219
26.506866841587545,53.94543492293678
26.506866841587545,53.94596600032173
26.50610355714773,53.9468710277888
26.505942738710175,53.94714461310832
26.50562830201025,53.947279133300526
26.50489584655356,53.94781825731252
26.504694221282552,53.94809720705007
26.50374955632379,53.95013074188046
26.503723152771197,53.95038286952786
26.504073321452967,53.95073173281992
26.504260545942397,53.951080419991854
26.504265346566342,53.951426424954775
26.504116527131462,53.95174292561853
26.50374927834647,53.9521693968519
26.503268662678312,53.95263073680246
26.502213052869294,53.95353464124048
26.502042627553223,53.954041578744295
26.502126640064557,53.95424810883844
26.502234656060327,53.95434466836298
26.502213052869294,53.95475772855127
26.50213864184689,53.954950847600344
26.502126640064557,53.955296852563265
26.502210652514474,53.95544169185007
26.502165045763565,53.95566163298929
26.50204054437067,53.95581882006513
26.501906124222298,53.95609240538465
26.500653288727335,53.95736032320394
26.50044685522842,53.95768755270376
26.500468458751477,53.95788335396185
26.500322034793342,53.95820790125265
26.500192413428827,53.95824276996984
26.500209216206542,53.95834469391241
26.500326835581813,53.95848148657217
26.50042525170127,53.95852171970739
26.500538070075986,53.95861827923193
26.501161085402412,53.96098154620279
26.500981057004434,53.96138119534601
26.501005060807127,53.96147775487054
26.49896118626506,53.96468764329643
26.49882196166348,53.96534746671409
26.499035599345003,53.965660036218196
26.49929964536888,53.96583169759515
26.499350054086282,53.96612137616876
26.499232433711246,53.966722190988094
26.498633854790274,53.968030622264905
26.498715469365916,53.968255927822156
26.498379065574827,53.969447596048326
26.49842707426218,53.96961389300725
26.498369849230382,53.97014765260121
26.49841305705339,53.97026298758885
26.49836024748973,53.970493657564134
26.497827325858907,53.97156605168118
26.49765929448851,53.97218027754559
26.497649692688498,53.972456545074124
26.49775291199662,53.97286424084439
26.497445511365537,53.97346805718075
26.497066391623814,53.97537425482051
26.496161786498696,53.97711934169661
26.49630101432281,53.97759141048323
26.496303414801037,53.97785158475767
26.495804114246393,53.979442134703504
26.494608664682147,53.98193809242912
26.494383016180738,53.98260328026481
26.49435289331671,53.982601002003776
26.494660159332618,53.9829657824298
26.494784985916958,53.98323400333129
26.494554536732288,53.985626533772574
26.494621751125525,53.98602350070678
26.494554536732288,53.98642046764098
26.494588143933818,53.986838892247306
26.494703368550212,53.98716612174712
26.494741776730024,53.987842038418876
26.494626552152134,53.9892153294345
26.494544934672895,53.9894674570819
26.49463615420468,53.98978395774566
26.494708169573407,53.99099095180236
26.494650557282053,53.991849258687125
26.49494341946339,53.99242325141631
26.495082648763308,53.99248762443267
26.495284290898706,53.992841676022636
26.49535150486524,53.993099168088065
26.495341902872433,53.9935551436206
26.495053842715098,53.99455828979217
26.494741776730024,53.99653239562713
26.49473217468628,53.997101023938285
26.495404315811346,54.000126555707084
26.495740384899968,54.00204701736175
26.49580759859977,54.00226695850097
26.495860409336338,54.00288386657439
26.495932423937994,54.00324864700042
26.4964125201293,54.004434183385
26.49659495615621,54.004589751507865
26.496753387207765,54.00491698100768
26.49684460498689,54.00498671844207
26.49702223940161,54.005356863286124
26.497156665262686,54.0058933050891
26.497267086388078,54.006118610646354
26.497363104671763,54.006596043851005
26.497622353637038,54.00719685867034
26.497847995778944,54.00738997771941
26.498024453215535,54.00778964533197
26.49822128931363,54.009055647987
26.498437328545428,54.012853655952085
26.498326908544353,54.01531592382776
26.49850454066803,54.01634482283987
26.4985957570573,54.01733724017538
26.499008630334746,54.01862470050253
26.499008630334746,54.019686855272425
26.49921506641724,54.020931400255336
26.498984626115046,54.02281431098379
26.49902783370689,54.02376381297506
26.499018232021225,54.024713314966334
26.499176659732306,54.02533022303976
26.49921026558233,54.02600613971151
26.49971915296734,54.027197040514125
26.499834372439757,54.0275886430303
26.4998487748657,54.02802316089071
26.50029044838443,54.02963248629965
26.50026644443246,54.03052834411062
26.50014162380143,54.030651725725306
26.500165627779484,54.03076974292196
26.50044407355827,54.030705369905604
26.500568893860763,54.03079656501211
26.501860295955783,54.03575865168966
26.501745078514677,54.036890543893946
26.50149544032926,54.03799561400808
26.50152904550119,54.038799696293836
26.502263556089936,54.040548496571546
26.504097411704887,54.04242604288197
26.50458227439656,54.04315560373402
26.504606277446936,54.04326825651265
26.50468788778076,54.043295078602796
26.50478389986399,54.043080501881605
26.504922958658952,54.04307496025501
26.507553655337336,54.04514026119648
26.51043383669711,54.04685447681027
26.514832827419216,54.04896026071037
26.51481842687171,54.04902463372673
26.514904830129765,54.04910509999718
26.51510643747908,54.04860620912041
26.51856429299397,54.04946944473295
26.51873709380822,54.04939434288053
26.519285509074315,54.04943189380674
26.519352708999772,54.049313876610086
26.519323909036547,54.04920658824949
26.51937190897127,54.049083206634805
26.51977030765499,54.04919585941343
26.51967910807831,54.050080988388345
26.519717507908886,54.050349209289834
26.52002950605634,54.050612065773294
26.51979734451966,54.04919116910321
26.520056542859997,54.0489014905296
26.522468246141084,54.04901387309417
26.522458646414638,54.049625416749564
26.522405847904857,54.04967906092986
26.522453846551123,54.04978098487243
26.522631441367814,54.04979707812652
26.522674640065453,54.04971661185607
26.52263445533262,54.04895782470703
26.52353381078662,54.04879393195495
26.525261732431456,54.048869033807364
26.525420123947523,54.048836847299185
26.525448922381514,54.04871883010253
26.525391325506313,54.048606177323904
26.525271331923506,54.04855253314361
26.523826599339927,54.04852571105346
26.523735402985377,54.04818775271758
26.523793000691416,54.047570844644156
26.52394179463163,54.04747428511962
26.524426573550645,54.04751183604583
26.524556167568342,54.047372361177054
26.524431373331698,54.04719533538207
26.523860197978614,54.04721679305419
26.523682605062778,54.04715242003783
26.523620207486584,54.04676618193969
26.52363460693026,54.04621364688262
26.523721003554343,54.0459400615631
26.52541127442729,54.04601516341552
26.52550246945051,54.04590251063689
26.525507269186576,54.04577376460418
26.525372876501127,54.045741578096
26.523849655766618,54.04568256949767
26.523902453612376,54.04470624541625
26.524060847004005,54.04377283667907
26.524598422945928,54.042855521195975
26.525198393122714,54.04155733203277
26.526211135667,54.039870778665545
26.526560874811732,54.03953728771046
26.526896852753065,54.0395265588744
26.526853655644278,54.03905985450581
26.52694004984559,54.038882828710825
26.52766811242726,54.038217487946895
26.52879893150804,54.037464844367264
26.52862614583873,54.03726099648213
26.52869334029658,54.03682647862172
26.529408478875105,54.03610764660573
26.53066430797312,54.03555511154866
26.531681801766855,54.03540490784383
26.531993767396596,54.03549610295033
26.532147350164333,54.035699950835465
26.532185745824137,54.035941349646805
26.532036962570793,54.035941349646805
26.532012965253813,54.03605936684346
26.532118553411028,54.036209570548294
26.532485430256767,54.0363007656548
26.53272060277867,54.03613983311391
26.53279739370185,54.03579651036
26.532725402212886,54.0357428661797
26.53254660550323,54.035957599964036
26.532488412259294,54.035926754560364
26.532439864959713,54.03579884468945
26.53248785941014,54.0357532471362
26.53248785941014,54.03568350970181
26.532437465236676,54.035635229939544
26.532497458297808,54.035329458111846
26.532667838420462,54.03509074150952
26.532874799990182,54.03493517338666
26.533874591994586,54.03449298557575
26.534059368208307,54.03460027393635
26.534109761669505,54.03455199417408
26.534097763228367,54.034466163485604
26.53405696851914,54.034417883723336
26.534255664238906,54.03422744688328
26.534582020941617,54.03405846771534
26.534735600245245,54.03383852657612
26.535403359119602,54.033507887036535
26.535859243894006,54.0333918954459
26.53595283026487,54.03300029292973
26.53657663333874,54.032794547244634
26.536845392313047,54.032260569488244
26.53683099452679,54.0320003952138
26.536735009239045,54.031724127685266
26.53645264677118,54.03157301810529
26.536390256137555,54.031197508843206
26.536770115667544,54.0305711115376
26.537156852248103,54.030225106574676
26.537387215956763,54.030225106574676
26.5375479903544,54.03016878018536
26.537689567622447,54.03004808077969
26.537970322027135,54.02998102555432
26.5379391271272,54.02989251265683
26.537667971101317,54.02968061814465
26.53749519878599,54.029254146911285
26.537341623176125,54.0291307652966
26.537062703967248,54.02844759667016
26.53766517492871,54.02766781752052
26.538705600280558,54.0269179193283
26.538739194563387,54.02681599538573
26.538903007795938,54.026624708829786
26.539128568832272,54.02656033581343
26.544124550523485,54.024078747838644
26.5479815191976,54.02352418722944
26.548163873295426,54.02351882281141
26.55021705845073,54.02334932164945
26.55044259723753,54.023397601411716
26.551049642067888,54.023300497538
26.554339213748907,54.023462356486334
26.5560495766365,54.02361175341389
26.55619832874415,54.02375122828266
26.557547386776008,54.023608378034396
26.558640663948033,54.02373712406711
26.559403599016875,54.02371030197696
26.56097947163189,54.02311354814549
26.561435304648743,54.02309209047337
26.561927305881667,54.02324146846786
26.562243987445555,54.02314490894332
26.562488695327414,54.02288205245986
26.562491859204002,54.02288088337127
26.562405491778325,54.02211377159301
26.56203123218168,54.02067610756103
26.5619592590422,54.01969441906158
26.56228073871526,54.01887902752105
26.562813337383044,54.01794561878387
26.563005264224227,54.01725897327606
26.564075250472687,54.01591250435058
26.564406320427086,54.01376137272064
26.565082851707427,54.01268848911468
26.56508764978736,54.012339801942744
26.56495784866156,54.00528559223358
26.567617474809126,54.00516579992757
26.56763666670308,54.00543402082906
26.568010907992708,54.00541256315694
26.567931626486182,54.000993609576085
26.5672599100142,54.00092923655973
26.56720233413336,54.000028014330724
26.56497604455439,54.00004947200284
26.564869784832165,53.998402973955535
26.56474983254576,53.998408338373565
26.56470185159605,53.996822195126015
26.56484579438493,53.996822195126015
26.564850592474787,53.99665589816709
26.566026619011677,53.996596889568764
26.566032581228644,53.99658823092295
26.565994196900167,53.995998144939676
26.5655647713487,53.99597132284953
26.56536565169214,53.995904267624155
26.565123206119587,53.99516097625269
26.565151994585978,53.99499199708475
26.565132802275848,53.994823017916815
26.565082422446483,53.994680860839026
26.56501045122327,53.9945682080604
26.56497446559471,53.99442605098261
26.56492168665236,53.99366129566988
26.564885700995937,53.99347354103884
26.564820926785877,53.99330992628893
26.564799335374374,53.99325896431765
26.564855712940275,53.99316642810663
26.564885700995937,53.993154358166066
26.564882102429678,53.99311144282183
26.564840119148236,53.99310339619478
26.56472016683077,53.993028294342366
26.564692577780004,53.992992084520665
26.56467818348999,53.99292502929529
26.56465179395364,53.99266351391634
26.56466498872257,53.99255555500349
26.564684780873144,53.99248112370333
26.56472436516399,53.99240937461218
26.564737559924595,53.99236444761118
26.5647531537306,53.99223838378748
26.56480533298908,53.991161209057054
26.564842518193284,53.99095669061967
26.564886300756974,53.99084202618428
26.564940279237096,53.990746137212
26.565038581983544,53.990646960295635
26.565071568791698,53.99063354925056
26.56508494142704,53.99062806821951
26.565298455785275,53.99033302522787
26.565221686623623,53.99008089758047
26.566054149475278,53.988906090031946
26.566094932802518,53.98837769485601
26.566234075809763,53.98784929968008
26.566836227220925,53.987011759697566
26.567540348901908,53.98703325103111
26.567618230778525,53.987108352883524
26.56771419021551,53.987076166375346
26.567762169903887,53.98696887801475
26.56771419021551,53.98686427186317
26.567193904355783,53.9868644038163
26.56721156688076,53.986192643063305
26.56731472363842,53.98552209080958
26.567331516590176,53.985095619576214
26.567485052035,53.98491064467248
26.56754262777376,53.98460219063577
26.567737602852777,53.98436637733789
26.56783596117219,53.984025736793
26.567847956083426,53.98302795503946
26.568210615795433,53.98127452614608
26.56828498398162,53.979692022827294
26.56849609340842,53.9791282974694
26.568908715255894,53.97853552927711
26.568824751628284,53.97807687153556
26.56896149236174,53.9776691757653
26.568932704852468,53.977041538855815
26.568839145397394,53.97667139401176
26.568978285072156,53.97637366881111
26.56898788090555,53.9761525740638
26.568723995193945,53.97567514085915
26.56860404694229,53.97529426717904
26.568692404479172,53.974936418227
26.568805155752333,53.97500615566139
26.569403042032054,53.974096152122456
26.56951819155301,53.97358402985617
26.56941023888048,53.972945664110625
26.569467813651823,53.97187546271368
26.56961414939875,53.971679661455596
26.569786846990993,53.971107120217084
26.569695687176868,53.969562167824506
26.56937902620631,53.96848391980052
26.569698485296698,53.96753987496436
26.57032550381527,53.966401319193665
26.57051262022146,53.965382079768005
26.57079904986047,53.96491162737493
26.57109651559492,53.96471850832586
26.571214708185174,53.96482514957961
26.571262686407596,53.964806374116506
26.57130106897107,53.96465617041167
26.571267484228734,53.96460520844039
26.571289074421376,53.96451133112487
26.571545757510957,53.96430480103072
26.572109498726387,53.963231917424764
26.572195858837752,53.96251308540877
26.572460100253203,53.962328744107026
26.57252821218065,53.960668420754814
26.57278969025111,53.96058795448437
26.573612502670493,53.959922766648674
26.57426333314856,53.95768888058217
26.574390472010453,53.95695127310307
26.574527206100644,53.95657576384099
26.57457518293573,53.95610637726338
26.574275327386847,53.95506836237462
26.574299228643664,53.95197577538045
26.574311222878208,53.95165927471669
26.574344599881314,53.949765172591015
26.574464542122534,53.94955596028785
26.57441896408568,53.949349430193706
26.57420953773328,53.949232470150605
26.573518036961705,53.946378883903435
26.574118194889248,53.94632427733859
26.57411339718752,53.9461097006174
26.573943574704902,53.94327150546599
26.574114201760736,53.94299255572844
26.57402304539006,53.94276188575316
26.574037438506057,53.942458796134474
26.57407582013982,53.942322003474715
26.57412619601464,53.942279088130476
26.574114201760736,53.94220935069609
26.57390310268656,53.942043053737166
26.57382500726865,53.9416955594146
26.573657087158274,53.941403198631974
26.573465767266033,53.94119456861358
26.573057959577724,53.94095585201126
26.572674225480274,53.940910185881876
26.571556341451576,53.94103356749656
26.57141240709297,53.94082971961143
26.571479576482812,53.94079216868522
26.571546745833285,53.94085654170158
26.571676286612288,53.94085654170158
26.57180102944621,53.94081899077537
26.57194516977832,53.9405456546275
26.572009939960857,53.94025597605389
26.57196196205138,53.940095043513
26.571842017189788,53.93997970852536
26.571669296368448,53.93993679318112
26.5715661435315,53.939995801779446
26.571460591695224,53.940011895033535
26.57132625285387,53.939990437361416
26.57118630858885,53.93985364470166
26.570889422103352,53.93939998136216
26.57074068906379,53.9389574168747
26.570863033997515,53.938739941740096
26.57082225236747,53.93851731839186
26.570587859740527,53.93838245530765
26.570436727381605,53.937427588898345
26.570563870490528,53.9374195422713
26.570496700563762,53.93711913486163
26.57038862104453,53.936839947029966
26.570352637105046,53.93680776052179
26.570022298313038,53.933938882504435
26.5701518408158,53.9337699033365
26.570154239749627,53.93353386894319
26.57009186745309,53.93347486034486
26.570034292995356,53.93326833025071
26.56991914399311,53.933051071320506
26.569595286803775,53.93053247705552
26.569460945775138,53.9301140524492
26.568232719718008,53.92803631294635
26.5671126669281,53.926730383027916
26.567107868932972,53.926663327802544
26.56706948496471,53.926604319204216
26.566829584871673,53.926598954786186
26.566807993838655,53.92651312409771
26.56698312098907,53.92640851794613
26.567028701984327,53.92630927621258
26.565914413645206,53.92489533990579
26.565707059019974,53.9244424066311
26.564781953070312,53.92325253686829
26.563997828740575,53.92137767276688
26.56388267367182,53.92083050212784
26.56280308927475,53.91915143928452
26.56056532534316,53.917385853986616
26.560287025393844,53.91710153983104
26.560287025393844,53.9171122686671
26.56035420130555,53.916693844060774
26.560037514519955,53.91583017275798
26.559639255653522,53.91544929907786
26.5571728988423,53.91379705832469
26.55635716603979,53.91316542881884
26.555292354063152,53.91257172567339
26.555253966137563,53.912426886386584
26.554918071240465,53.91201919061632
26.5542750696923,53.91069954378099
26.554121516550314,53.910163101978014
26.55420789021799,53.91004508478136
26.553961714856726,53.90985383755651
26.550846222858734,53.90865713007361
26.54952130909673,53.907949026893675
26.54874871073427,53.907434042762816
26.548681528021977,53.90706389791876
26.54888307604079,53.90678494818121
26.54895025863502,53.90639871008307
26.548935862368133,53.90605002291113
26.548892673556676,53.90584081060797
26.548652735418937,53.90550821669012
26.548736408081542,53.90544668997529
26.54878545226908,53.90533806051019
26.548718269578288,53.90525893534425
26.54868947698449,53.90531123842004
26.548654685923996,53.90530721510652
26.548481139266084,53.90515076286863
26.548445148448256,53.90504615671705
26.548377965558103,53.90497063879468
26.54786597347131,53.90467771821659
26.547915161167918,53.904633461767844
26.547883968972528,53.90450471573513
26.547744803689667,53.90434244208973
26.547819185154953,53.904291480118445
26.54781438635219,53.904249905878714
26.547523840337053,53.90408885144893
26.547485449810512,53.90372943544094
26.5470353534493,53.903100517798975
26.546849398424612,53.90264588337095
26.54678461402263,53.90233608822973
26.546843065475475,53.90225219213926
26.546910249264826,53.90194105589353
26.54692584549602,53.901749277948966
26.547145743206965,53.90160515908747
26.547447467420536,53.90153483140159
26.547724839829645,53.90105954161231
26.54785610338067,53.90102416423531
26.547928085374767,53.90097588447304
26.548041489484685,53.9010087051347
26.548222643790698,53.90072694040498
26.548097875292726,53.90038510892475
26.548052286769224,53.90002301070774
26.54815786016447,53.89991974566067
26.548227442576362,53.89970248673046
26.548215445611806,53.899611571074274
26.54824543802086,53.899269701356616
26.548142104458176,53.89876946937534
26.548094116556715,53.898277284021106
26.54811571111486,53.898183406705584
26.5480641241081,53.898088188285556
26.547884169251645,53.898230488131844